R 데이터 분석 기초
…
##    id prec
## 1 100  0.0
## 2 100  0.1
## 3 100  1.7
## 4 100  0.0
## 5 100  2.5
## 6 100  0.0

t.data %>% select(지점, var.n[13]) %>%
  rename(id=지점, prec=var.n[13]) %>% 
  filter(!is.na(prec)) %>% 
  group_by(id) %>% 
  summarise(t_prec =sum(prec))

## # A tibble: 95 x 2
##       id t_prec
##    <int>  <dbl>
##  1    90  1777 
##  2    93  1262.
##  3    95  1481.
##  4    98  1500 
##  5    99  1010.
##  6   100  1731.
##  7   101  1402.
##  8   102   831.
##  9   104  1548.
## 10   105  1599.
## # ... with 85 more rows
…
도시별 월 평균 기온은?

substr()함수를 이용해서 월만 선택한 mon 파생변수를 mutate()를 이용해서 처리해야합니다.

이 외의 접근방법 위와 같습니다.

t.data %>% select(지점,일시,var.n[3]) %>%
  rename(id=지점, temp=var.n[3]) %>% 
  filter(!is.na(temp)) %>%
  mutate(mon=substr(일시, 6,7)) %>% 
  group_by(id, mon) %>% 
  summarise(mean_temp =mean(temp))

## # A tibble: 1,140 x 3
## # Groups:   id [95]
##       id mon   mean_temp
##    <int> <chr>     <dbl>
##  1    90 01       -1.39 
##  2    90 02       -0.461
##  3    90 03        8.04 
##  4    90 04       13.0  
##  5    90 05       15.9  
##  6    90 06       21.3  
##  7    90 07       25.0  
##  8    90 08       25.6  
##  9    90 09       20.0  
## 10    90 10       13.5  
## # ... with 1,130 more rows
…
안개가 관측된 날만 필터링하겠습니다.

도시별로 안개관측된 날을 n()함수로 계산합니다.

마지막으로 arrange로 정렬하면 안개가 많이 낀 도시를 확인할 있습니다.

t.data %>% select(지점,var.n[59]) %>%
  rename(id=지점, fog=var.n[59]) %>% 
  filter(!is.na(fog)) %>%
  group_by(id) %>% 
  summarise(fog_day =n()) %>% 
  arrange(desc(fog_day))

## # A tibble: 23 x 2
##       id fog_day
##    <int>   <int>
##  1   102      92
##  2   169      85
##  3   115      61
##  4   136      54
##  5   112      52
##  6   177      39
##  7   165      26
##  8    93      25
##  9   146      21
## 10   159      20
## # ... with 13 more rows
…
