Practice
…
## 
## FALSE 
## 16664

     .

income   

  : age

 age_income 

## # A tibble: 69 x 2
##      age mean_income
##    <dbl>       <dbl>
##  1    20        121.
##  2    21        106.
##  3    22        130.
##  4    23        142.
##  5    24        134.
##  6    25        145.
##  7    26        158.
##  8    27        188.
##  9    28        205.
## 10    29        189.
## # ... with 59 more rows
…
